[01m[K/home/gabriele/Scrivania/progetto/labiagi_garcea/my_ws/src/col_avd/src/node.cpp:[m[K In function ‘[01m[Kint main(int, char**)[m[K’:
[01m[K/home/gabriele/Scrivania/progetto/labiagi_garcea/my_ws/src/col_avd/src/node.cpp:77:3:[m[K [01;31m[Kerror: [m[Kexpected initializer before ‘[01m[Kfor[m[K’
   [01;31m[Kfor[m[K(int k=0; k < len; k++)
   [01;31m[K^~~[m[K
[01m[K/home/gabriele/Scrivania/progetto/labiagi_garcea/my_ws/src/col_avd/src/node.cpp:77:16:[m[K [01;31m[Kerror: [m[K‘[01m[Kk[m[K’ was not declared in this scope
   for(int k=0; [01;31m[Kk[m[K < len; k++)
                [01;31m[K^[m[K
[01m[K/home/gabriele/Scrivania/progetto/labiagi_garcea/my_ws/src/col_avd/src/node.cpp:90:52:[m[K [01;31m[Kerror: [m[K‘[01m[Knew_array_due[m[K’ was not declared in this scope
    if(min_array(new_array, len/2) > 1 && min_array([01;31m[Knew_array_due[m[K,len/2) > 1)           // non ha ostacoli va avanti
                                                    [01;31m[K^~~~~~~~~~~~~[m[K
[01m[K/home/gabriele/Scrivania/progetto/labiagi_garcea/my_ws/src/col_avd/src/node.cpp:90:52:[m[K [01;36m[Knote: [m[Ksuggested alternative: ‘[01m[Knew_array[m[K’
    if(min_array(new_array, len/2) > 1 && min_array([01;36m[Knew_array_due[m[K,len/2) > 1)           // non ha ostacoli va avanti
                                                    [01;36m[K^~~~~~~~~~~~~[m[K
                                                    [32m[Knew_array[m[K
make[2]: *** [CMakeFiles/node_cpp.dir/src/node.cpp.o] Error 1
make[1]: *** [CMakeFiles/node_cpp.dir/all] Error 2
make: *** [all] Error 2
