[01m[K/home/gabriele/Scrivania/progetto/labiagi_garcea/my_ws/src/col_avd/src/node.cpp:2:2:[m[K [01;31m[Kerror: [m[Kinvalid preprocessing directive #inlcude; did you mean #include?
 #[01;31m[Kinlcude[m[K "sensor_msgs/LaserScan.h"
  [01;31m[K^~~~~~~[m[K
  [32m[Kinclude[m[K
[01m[K/home/gabriele/Scrivania/progetto/labiagi_garcea/my_ws/src/col_avd/src/node.cpp:8:1:[m[K [01;31m[Kerror: [m[K‘[01m[Ksensor_msgs[m[K’ does not name a type
 [01;31m[Ksensor_msgs[m[K::LaserScan laser;
 [01;31m[K^~~~~~~~~~~[m[K
[01m[K/home/gabriele/Scrivania/progetto/labiagi_garcea/my_ws/src/col_avd/src/node.cpp:[m[K In function ‘[01m[Kint main(int, char**)[m[K’:
[01m[K/home/gabriele/Scrivania/progetto/labiagi_garcea/my_ws/src/col_avd/src/node.cpp:16:29:[m[K [01;31m[Kerror: [m[Kparse error in template argument list
  ros::Publisher vel_pub = n.[01;31m[Kadvertise<geometry_msgs/Twist>[m[K("cmd_vel", 1000); // topic dove si pubblica la velocità
                             [01;31m[K^~~~~~~~~~~~~~~~~~~~~~~~~~~~~~[m[K
[01m[K/home/gabriele/Scrivania/progetto/labiagi_garcea/my_ws/src/col_avd/src/node.cpp:16:75:[m[K [01;31m[Kerror: [m[Kno matching function for call to ‘[01m[Kros::NodeHandle::advertise<<expression error> >(const char [8], int)[m[K’
  ros::Publisher vel_pub = n.advertise<geometry_msgs/Twist>("cmd_vel", 1000[01;31m[K)[m[K; // topic dove si pubblica la velocità
                                                                           [01;31m[K^[m[K
In file included from [01m[K/opt/ros/melodic/include/ros/ros.h:45:0[m[K,
                 from [01m[K/home/gabriele/Scrivania/progetto/labiagi_garcea/my_ws/src/col_avd/src/node.cpp:1[m[K:
[01m[K/opt/ros/melodic/include/ros/node_handle.h:249:15:[m[K [01;36m[Knote: [m[Kcandidate: template<class M> ros::Publisher ros::NodeHandle::advertise(const string&, uint32_t, bool)
     Publisher [01;36m[Kadvertise[m[K(const std::string& topic, uint32_t queue_size, bool latch = false)
               [01;36m[K^~~~~~~~~[m[K
[01m[K/opt/ros/melodic/include/ros/node_handle.h:249:15:[m[K [01;36m[Knote: [m[K  template argument deduction/substitution failed:
[01m[K/home/gabriele/Scrivania/progetto/labiagi_garcea/my_ws/src/col_avd/src/node.cpp:16:75:[m[K [01;31m[Kerror: [m[Ktemplate argument 1 is invalid
  ros::Publisher vel_pub = n.advertise<geometry_msgs/Twist>("cmd_vel", 1000[01;31m[K)[m[K; // topic dove si pubblica la velocità
                                                                           [01;31m[K^[m[K
In file included from [01m[K/opt/ros/melodic/include/ros/ros.h:45:0[m[K,
                 from [01m[K/home/gabriele/Scrivania/progetto/labiagi_garcea/my_ws/src/col_avd/src/node.cpp:1[m[K:
[01m[K/opt/ros/melodic/include/ros/node_handle.h:315:13:[m[K [01;36m[Knote: [m[Kcandidate: template<class M> ros::Publisher ros::NodeHandle::advertise(const string&, uint32_t, const SubscriberStatusCallback&, const SubscriberStatusCallback&, const VoidConstPtr&, bool)
   Publisher [01;36m[Kadvertise[m[K(const std::string& topic, uint32_t queue_size,
             [01;36m[K^~~~~~~~~[m[K
[01m[K/opt/ros/melodic/include/ros/node_handle.h:315:13:[m[K [01;36m[Knote: [m[K  template argument deduction/substitution failed:
[01m[K/home/gabriele/Scrivania/progetto/labiagi_garcea/my_ws/src/col_avd/src/node.cpp:16:75:[m[K [01;31m[Kerror: [m[Ktemplate argument 1 is invalid
  ros::Publisher vel_pub = n.advertise<geometry_msgs/Twist>("cmd_vel", 1000[01;31m[K)[m[K; // topic dove si pubblica la velocità
                                                                           [01;31m[K^[m[K
[01m[K/home/gabriele/Scrivania/progetto/labiagi_garcea/my_ws/src/col_avd/src/node.cpp:26:64:[m[K [01;31m[Kerror: [m[K‘[01m[Kcallback_scan[m[K’ was not declared in this scope
  ros::Subscriber scanner_sub = n.subscribe("/base_scan", 1000, [01;31m[Kcallback_scan[m[K);   // legge da /base_scan messaggi del tipo : sensor_msgs/LaserScan
                                                                [01;31m[K^~~~~~~~~~~~~[m[K
[01m[K/home/gabriele/Scrivania/progetto/labiagi_garcea/my_ws/src/col_avd/src/node.cpp:30:60:[m[K [01;31m[Kerror: [m[K‘[01m[Kcallback_odom[m[K’ was not declared in this scope
  ros::Subscriber odometry_sub = n.subscribe("/odom", 1000, [01;31m[Kcallback_odom[m[K);   // legge da /odom messaggi del tipo : nav_msgs/Odometry
                                                            [01;31m[K^~~~~~~~~~~~~[m[K
make[2]: *** [CMakeFiles/node_cpp.dir/src/node.cpp.o] Error 1
make[1]: *** [CMakeFiles/node_cpp.dir/all] Error 2
make: *** [all] Error 2
