[01m[K/home/gabriele/Scrivania/progetto/labiagi_garcea/my_ws/src/col_avd/src/node.cpp:[m[K In function ‘[01m[Kint main(int, char**)[m[K’:
[01m[K/home/gabriele/Scrivania/progetto/labiagi_garcea/my_ws/src/col_avd/src/node.cpp:111:28:[m[K [01;31m[Kerror: [m[Kexpected ‘[01m[K)[m[K’ before ‘[01m[Kmin_array[m[K’
      else if (check = true [01;31m[Kmin_array[m[K(destra,len/3) < 1 &&  min_array(sinistra,len/3) < 1)
                            [01;31m[K^~~~~~~~~[m[K
make[2]: *** [CMakeFiles/node_cpp.dir/src/node.cpp.o] Error 1
make[1]: *** [CMakeFiles/node_cpp.dir/all] Error 2
make: *** [all] Error 2
