[01m[K/home/gabriele/Scrivania/progetto/labiagi_garcea/my_ws/src/col_avd/src/node.cpp:[m[K In function ‘[01m[Kfloat min_array(float*, int)[m[K’:
[01m[K/home/gabriele/Scrivania/progetto/labiagi_garcea/my_ws/src/col_avd/src/node.cpp:20:16:[m[K [01;31m[Kerror: [m[K‘[01m[Ki[m[K’ was not declared in this scope
    min = array[[01;31m[Ki[m[K];
                [01;31m[K^[m[K
[01m[K/home/gabriele/Scrivania/progetto/labiagi_garcea/my_ws/src/col_avd/src/node.cpp:[m[K In function ‘[01m[Kint main(int, char**)[m[K’:
[01m[K/home/gabriele/Scrivania/progetto/labiagi_garcea/my_ws/src/col_avd/src/node.cpp:73:20:[m[K [01;31m[Kerror: [m[K‘[01m[Klength[m[K’ was not declared in this scope
   float new_array [[01;31m[Klength[m[K];
                    [01;31m[K^~~~~~[m[K
[01m[K/home/gabriele/Scrivania/progetto/labiagi_garcea/my_ws/src/col_avd/src/node.cpp:73:20:[m[K [01;36m[Knote: [m[Ksuggested alternative: ‘[01m[Klen[m[K’
   float new_array [[01;36m[Klength[m[K];
                    [01;36m[K^~~~~~[m[K
                    [32m[Klen[m[K
[01m[K/home/gabriele/Scrivania/progetto/labiagi_garcea/my_ws/src/col_avd/src/node.cpp:76:31:[m[K [01;31m[Kerror: [m[K‘[01m[Knew_array[m[K’ was not declared in this scope
    if(k < 300 || k > len-300) [01;31m[Knew_array[m[K[k] = 100;
                               [01;31m[K^~~~~~~~~[m[K
[01m[K/home/gabriele/Scrivania/progetto/labiagi_garcea/my_ws/src/col_avd/src/node.cpp:76:31:[m[K [01;36m[Knote: [m[Ksuggested alternative: ‘[01m[Kmin_array[m[K’
    if(k < 300 || k > len-300) [01;36m[Knew_array[m[K[k] = 100;
                               [01;36m[K^~~~~~~~~[m[K
                               [32m[Kmin_array[m[K
[01m[K/home/gabriele/Scrivania/progetto/labiagi_garcea/my_ws/src/col_avd/src/node.cpp:77:9:[m[K [01;31m[Kerror: [m[K‘[01m[Knew_array[m[K’ was not declared in this scope
    else [01;31m[Knew_array[m[K[k] = laser.ranges[k];
         [01;31m[K^~~~~~~~~[m[K
[01m[K/home/gabriele/Scrivania/progetto/labiagi_garcea/my_ws/src/col_avd/src/node.cpp:77:9:[m[K [01;36m[Knote: [m[Ksuggested alternative: ‘[01m[Kmin_array[m[K’
    else [01;36m[Knew_array[m[K[k] = laser.ranges[k];
         [01;36m[K^~~~~~~~~[m[K
         [32m[Kmin_array[m[K
[01m[K/home/gabriele/Scrivania/progetto/labiagi_garcea/my_ws/src/col_avd/src/node.cpp:81:17:[m[K [01;31m[Kerror: [m[K‘[01m[Knew_array[m[K’ was not declared in this scope
    if(min_array([01;31m[Knew_array[m[K[], len) > 0.5)           // non ha ostacoli va avanti
                 [01;31m[K^~~~~~~~~[m[K
[01m[K/home/gabriele/Scrivania/progetto/labiagi_garcea/my_ws/src/col_avd/src/node.cpp:81:17:[m[K [01;36m[Knote: [m[Ksuggested alternative: ‘[01m[Kmin_array[m[K’
    if(min_array([01;36m[Knew_array[m[K[], len) > 0.5)           // non ha ostacoli va avanti
                 [01;36m[K^~~~~~~~~[m[K
                 [32m[Kmin_array[m[K
[01m[K/home/gabriele/Scrivania/progetto/labiagi_garcea/my_ws/src/col_avd/src/node.cpp:81:27:[m[K [01;31m[Kerror: [m[Kexpected primary-expression before ‘[01m[K][m[K’ token
    if(min_array(new_array[[01;31m[K][m[K, len) > 0.5)           // non ha ostacoli va avanti
                           [01;31m[K^[m[K
make[2]: *** [CMakeFiles/node_cpp.dir/src/node.cpp.o] Error 1
make[1]: *** [CMakeFiles/node_cpp.dir/all] Error 2
make: *** [all] Error 2
